…
\  

### 1.5 Creating a new dataframe 

```r
four_factors_scaled = four_factors_new
four_factors_scaled
```

```
## # A tibble: 330 x 13
##    Team  Season  WINS   MOV  NRTG   eFG   TOV  OREB   FTF OPPeFG OPPTOV  DREB
##    <chr> <chr>  <dbl> <dbl> <dbl> <dbl> <dbl> <dbl> <dbl>  <dbl>  <dbl> <dbl>
##  1 Milw… 2018 …    60  8.87   8.6 0.55   12    20.8 0.197  0.503   11.5  80.3
##  2 Toro… 2018 …    58  6.09   6   0.543  12.4  21.9 0.198  0.509   13.1  77.1
##  3 Gold… 2018 …    57  6.46   6.4 0.565  12.6  22.5 0.182  0.508   11.7  77.1
##  4 Denv… 2018 …    54  3.95   4.1 0.527  11.9  26.6 0.175  0.521   12.3  78  
##  5 Hous… 2018 …    53  4.77   4.8 0.542  12    22.8 0.221  0.525   13.4  74.4
##  6 Port… 2018 …    53  4.2    4.2 0.528  12.1  26.6 0.21   0.516   11    77.9
##  7 Phil… 2018 …    51  2.7    2.6 0.532  12.9  24.5 0.241  0.512   11.1  78.6
##  8 Utah… 2018 …    50  5.26   5.2 0.538  13.4  22.9 0.217  0.507   12.4  80.3
##  9 Bost… 2018 …    49  4.44   4.4 0.534  11.5  21.6 0.173  0.514   13.4  77  
## 10 Okla… 2018 …    49  3.4    3.3 0.514  11.7  26   0.19   0.523   14.4  78.2
## # … with 320 more rows, and 1 more variable: OPPFTF <dbl>
```
…
